[
  {
    "uuid": "30510e5e-3567-3d37-84f4-e4bc41e1b9cc",
    "name": "Alonso",
    "level": 4,
    "bypassesPlayerLimit": false
  },
  {
    "uuid": "c63fb77e-61c9-3149-8125-27ea73803340",
    "name": "Bledi",
    "level": 4,
    "bypassesPlayerLimit": false
  },
  {
    "uuid": "056c8969-b5df-36bb-8e5b-b93fe2b157e9",
    "name": "DCorleone",
    "level": 4,
    "bypassesPlayerLimit": false
  },
  {
    "uuid": "3c2b3a1f-fdc7-3b26-b260-1bb8f2cd3364",
    "name": "Stemen",
    "level": 4,
    "bypassesPlayerLimit": false
  },
  {
    "uuid": "1ad75938-f9c5-3dfb-ac51-0e6cf8ab3e14",
    "name": "blediMX",
    "level": 4,
    "bypassesPlayerLimit": false
  },
  {
    "uuid": "74176447-e2c8-3850-9e8f-b728a81c78a6",
    "name": "gameza",
    "level": 4,
    "bypassesPlayerLimit": false
  },
  {
    "uuid": "77b8687a-b9b1-3914-b4c1-510bb923049e",
    "name": "gamnza",
    "level": 4,
    "bypassesPlayerLimit": false
  },
  {
    "uuid": "55522c40-bb47-3259-bea9-f88f414fd893",
    "name": "AdrianFH",
    "level": 4,
    "bypassesPlayerLimit": false
  },
  {
    "uuid": "f70e0883-9f4c-3b2c-8255-8a645fc68f5c",
    "name": "gamenza",
    "level": 4,
    "bypassesPlayerLimit": false
  },
  {
    "uuid": "437353e4-16a4-3c71-9d93-e1136d4dd309",
    "name": "JFRN",
    "level": 4,
    "bypassesPlayerLimit": false
  },
  {
    "uuid": "96e75009-84d1-3b25-a01a-7552cc5220d5",
    "name": "gamnenza",
    "level": 4,
    "bypassesPlayerLimit": false
  },
  {
    "uuid": "97e679d6-f2d7-3fc0-93ef-bffb8e8aa1c3",
    "name": "patowazhir",
    "level": 4,
    "bypassesPlayerLimit": false
  }
]